Aquatic
Orca
ebe,be bee
tra,at art rat
ogd,go,do,god,dog
rcao,or,arc,orca
anws,an,was,swan
ishf,is,if,his,fish
nilo,no,on,in,nil,lion
naut,an,ant,nut,tan,tuna
worc,or,row,cow,crow
taog,go,at,tag,got,oat,goat